…
    ## <resample [250 x 3]> 8, 132, 69, 225, 180, 122, 34, 170, 216, 122, ...

``` r
as_data_frame(boostrap_df[[1]][[1]])
```

    ## Warning: `as_data_frame()` was deprecated in tibble 2.0.0.
    ## Please use `as_tibble()` instead.
    ## The signature and semantics have changed, see `?as_tibble`.
    ## This warning is displayed once every 8 hours.
    ## Call `lifecycle::last_lifecycle_warnings()` to see where this warning was generated.

    ## # A tibble: 250 × 3
    ##         x  error     y
    ##     <dbl>  <dbl> <dbl>
    ##  1  1.74   0.747  7.96
    ##  2  0.411  0.343  3.58
    ##  3  1.15  -1.12   4.34
    ##  4 -0.157 -0.159  1.37
    ##  5  2.21  -1.13   7.50
    ##  6  2.34   0.488  9.52
    ##  7  0.946 -0.498  4.34
    ##  8  1.21   1.55   7.17
    ##  9  2.52   0.528 10.1 
    ## 10  2.34   0.488  9.52
    ## # … with 240 more rows
…
